{
  "history": {
    "from": "From",
    "to": "To",
    "token_name": "Token name",
    "no_transaction":"No transaction history",
    "date":"Date"
  },
  "menu": {
    "change_language": "Change language",
    "login_private_key":"Login using private key",
    "logout":"Logout",
    "transaction_history":"Transaction history",
    "wallet_overview":"Transfer",
    "cancel":"Cancel",
    "change_passCode":"Change passcode"

  },
  "error":{
    "invalid_address" : "Invalid destination address",
    "network_failed" : "Network request failed",
    "send_success":"SEND SUCCESS",
    "send_error":"SEND ERROR"
  },
  "login": {
    "announce": "ANNOUNCE",
    "permission_camera": "This application need your permission to access your camera",
    "login": "Login",
    "require_private_key": "Please enter private key",
    "private_key_invalid": "Private key not found",
    "enter_private_key": "Enter your private key here"

  },
  "home":{
    "my_wallet":"You don't login yet.",
    "send":"Send",
    "your_public":"Your Public Fancoin Address",
    "receive":"Receive",
    "please_login":"Please login to continue",
    "logout":"Are you sure?"
  },
  "sendWallet":{
    "enter_address":"Enter your address here",
    "amount":"Amount",
    "permission_camera":"This application need your permission to access your camera",
    "require_address":"Please enter address",
    "require_amount":"Please enter amount",
    "send_yourself":"You can not send it to yourself",
    "require_big":"Fancoin must be greater than 0",
    "require_number":"Please enter numbers only",
    "not_enough_coin":"Your coin is not enough",
    "sure":"Are you sure to send it?",
    "yes":"YES",
    "no":"NO",
    "address":"Where to send the asset (address)",
    "copy_success":"Copy success"
  },
  "passcode":{
    "new_pass":"New passcode",
    "old_pass":"Old passcode",
    "enter_old_pass":"Enter old passcode",
    "enter_pass_6":"Enter passcode in 6 numbers",
    "repeat_pass":"Repeat passcode here",
    "update":"Update",
    "please_old":"Please enter old passcode",
    "please_new":"Please enter new passcode",
    "please_confirm":"Please enter confirm passcode",
    "pass_6":"Passcode include 6 numbers",
    "pass_not_match":"Passcode does not match",
    "old_pass_not_match":"Old passcode does not match",
    "update_success":"Update passcode success",
    "please_set_pass":"Please set your passcode"
  },
  "pinCode":{
    "clear":"CLEAR",
    "delete":"DELETE",
    "incorrect":"Your PIN is incorrect",
    "enter":"Enter Fancoin Passcode"

  }
}